<?xml version="1.0" encoding="utf-8"?>
<!-- Generator: Adobe Illustrator 17.0.0, SVG Export Plug-In . SVG Version: 6.00 Build 0)  -->
<!DOCTYPE svg PUBLIC "-//W3C//DTD SVG 1.1//EN" "http://www.w3.org/Graphics/SVG/1.1/DTD/svg11.dtd">
<svg version="1.1" id="Camada_1" xmlns="http://www.w3.org/2000/svg" xmlns:xlink="http://www.w3.org/1999/xlink" x="0px" y="0px"
	 width="40.035px" height="24.372px" viewBox="0 0 40.035 24.372" enable-background="new 0 0 40.035 24.372" xml:space="preserve">
<g>
	<path fill="#FFFFFF" d="M16.606,24.372L0,0h7.81l9.372,14.596c1.014,1.576,1.945,3.213,2.795,4.911
		c0.658-1.285,1.575-2.83,2.754-4.636L32.431,0h7.604L23.511,24.372H16.606z"/>
</g>
</svg>
